## Question 1

> Make a table that describes each plane. It should have a column for
> tailnum, another column for average arrival delay, and another for the
> year the plane was manufactured.

``` r
flights %>%
  group_by(tailnum) %>%
  summarise(avg_arr_delay = mean(arr_delay, na.rm=T)) %>%
  left_join(planes %>% select(tailnum, year), by = "tailnum") %>%
  arrange(desc(avg_arr_delay))
```

    ## # A tibble: 4,044 × 3
    ##    tailnum avg_arr_delay  year
    ##    <chr>           <dbl> <int>
    ##  1 N844MH           320   2002
    ##  2 N911DA           294   1995
    ##  3 N922EV           276   2003
    ##  4 N587NW           264   2002
    ##  5 N851NW           219   2004
    ##  6 N928DN           201     NA
    ##  7 N7715E           188   2005
    ##  8 N654UA           185   1992
    ##  9 N665MQ           175.    NA
    ## 10 N427SW           157   2001
    ## # … with 4,034 more rows
…
``` r
flights %>%
  mutate(year_day = yday(time_hour)) %>%
  group_by(year_day, origin) %>%
  summarise(dep_num = n()) %>%
  pivot_wider(names_from = origin, values_from = dep_num)
```

    ## `summarise()` has grouped output by 'year_day'. You can override using the
    ## `.groups` argument.

    ## # A tibble: 365 × 4
    ## # Groups:   year_day [365]
    ##    year_day   EWR   JFK   LGA
    ##       <dbl> <int> <int> <int>
    ##  1        1   305   297   240
    ##  2        2   350   321   272
    ##  3        3   336   318   260
    ##  4        4   339   318   258
    ##  5        5   238   302   180
    ##  6        6   301   307   224
    ##  7        7   342   307   284
    ##  8        8   334   288   277
    ##  9        9   336   288   278
    ## 10       10   344   306   282
    ## # … with 355 more rows
…
